{
  "_id": "1tAXamEdCqcLQwpM",
  "name": "Merric (Halfling Barbarian)",
  "type": "character",
  "img": "systems/dnd5e/tokens/heroes/BarbarianMaul.webp",
  "data": {
    "abilities": {
      "str": {
        "value": 14,
        "proficient": 1,
        "mod": 2,
        "save": 4,
        "prof": 2,
        "saveBonus": 0,
        "checkBonus": 0,
        "dc": 12
      },
      "dex": {
        "value": 14,
        "proficient": 0,
        "mod": 2,
        "save": 2,
        "prof": 0,
        "saveBonus": 0,
        "checkBonus": 0,
        "dc": 12
      },
      "con": {
        "value": 15,
        "proficient": 1,
        "mod": 2,
        "save": 4,
        "prof": 2,
        "saveBonus": 0,
        "checkBonus": 0,
        "dc": 12
      },
      "int": {
        "value": 8,
        "proficient": 0,
        "mod": -1,
        "save": -1,
        "prof": 0,
        "saveBonus": 0,
        "checkBonus": 0,
        "dc": 9
      },
      "wis": {
        "value": 10,
        "proficient": 0,
        "mod": 0,
        "save": 0,
        "prof": 0,
        "saveBonus": 0,
        "checkBonus": 0,
        "dc": 10
      },
      "cha": {
        "value": 14,
        "proficient": 0,
        "mod": 2,
        "save": 2,
        "prof": 0,
        "saveBonus": 0,
        "checkBonus": 0,
        "dc": 12
      }
    },
    "attributes": {
      "ac": {
        "flat": null,
        "calc": "unarmoredBarb",
        "formula": "",
        "min": 0
      },
      "hp": {
        "value": 14,
        "min": 0,
        "max": 14,
        "temp": null,
        "tempmax": null
      },
      "init": {
        "value": 0,
        "bonus": 0,
        "mod": 2,
        "prof": 0,
        "total": 2
      },
      "movement": {
        "burrow": 0,
        "climb": 0,
        "fly": 0,
        "swim": 0,
        "walk": 25,
        "units": "ft",
        "hover": false
      },
      "senses": {
        "darkvision": 0,
        "blindsight": 0,
        "tremorsense": 0,
        "truesight": 0,
        "units": "ft",
        "special": ""
      },
      "spellcasting": "int",
      "death": {
        "success": 0,
        "failure": 0
      },
      "exhaustion": 0,
      "inspiration": false,
      "encumbrance": {
        "value": 80,
        "max": 210,
        "pct": 38.095238095238095,
        "encumbered": true
      },
      "hd": 1,
      "prof": 2,
      "spelldc": 9
    },
    "details": {
      "biography": {
        "value": "<p>Merric was once a vigilante, due to her innate sense of street justice. Though her small size may not seem like much in combat, she more than makes up for it with her violent outbursts of anger.</p>\n<blockquote>Actor artwork provided by <a href=\"https://www.forgotten-adventures.net/\" target=\"_blank\" rel=\"noopener\">Forgotten Adventures</a></blockquote>",
        "public": ""
      },
      "alignment": "Chaotic Good",
      "race": "Lightfoot Halfling",
      "background": "Vigilante",
      "originalClass": "",
      "xp": {
        "value": 0,
        "min": 0,
        "max": 300,
        "pct": 0
      },
      "appearance": "",
      "trait": "",
      "ideal": "",
      "bond": "",
      "flaw": "",
      "level": 1,
      "hd": {
        "_deprecated": true
      }
    },
    "traits": {
      "size": "sm",
      "di": {
        "value": [],
        "custom": ""
      },
      "dr": {
        "value": [],
        "custom": ""
      },
      "dv": {
        "value": [],
        "custom": ""
      },
      "ci": {
        "value": [],
        "custom": "Advantage against being frightened"
      },
      "languages": {
        "value": [
          "common",
          "halfling"
        ],
        "custom": ""
      },
      "weaponProf": {
        "value": [
          "sim",
          "mar"
        ],
        "custom": ""
      },
      "armorProf": {
        "value": [
          "lgt",
          "med",
          "shl"
        ],
        "custom": ""
      },
      "toolProf": {
        "value": [],
        "custom": ""
      },
      "perception": {
        "_deprecated": true
      }
    },
    "currency": {
      "pp": 0,
      "gp": 2,
      "ep": 0,
      "sp": 0,
      "cp": 0
    },
    "skills": {
      "acr": {
        "value": 0,
        "ability": "dex",
        "bonus": 0,
        "mod": 2,
        "passive": 12,
        "prof": 0,
        "total": 2
      },
      "ani": {
        "value": 1,
        "ability": "wis",
        "bonus": 0,
        "mod": 0,
        "passive": 12,
        "prof": 2,
        "total": 2
      },
      "arc": {
        "value": 0,
        "ability": "int",
        "bonus": 0,
        "mod": -1,
        "passive": 9,
        "prof": 0,
        "total": -1
      },
      "ath": {
        "value": 1,
        "ability": "str",
        "bonus": 0,
        "mod": 2,
        "passive": 14,
        "prof": 2,
        "total": 4
      },
      "dec": {
        "value": 0,
        "ability": "cha",
        "bonus": 0,
        "mod": 2,
        "passive": 12,
        "prof": 0,
        "total": 2
      },
      "his": {
        "value": 0,
        "ability": "int",
        "bonus": 0,
        "mod": -1,
        "passive": 9,
        "prof": 0,
        "total": -1
      },
      "ins": {
        "value": 1,
        "ability": "wis",
        "bonus": 0,
        "mod": 0,
        "passive": 12,
        "prof": 2,
        "total": 2
      },
      "itm": {
        "value": 0,
        "ability": "cha",
        "bonus": 0,
        "mod": 2,
        "passive": 12,
        "prof": 0,
        "total": 2
      },
      "inv": {
        "value": 1,
        "ability": "int",
        "bonus": 0,
        "mod": -1,
        "passive": 11,
        "prof": 2,
        "total": 1
      },
      "med": {
        "value": 0,
        "ability": "wis",
        "bonus": 0,
        "mod": 0,
        "passive": 10,
        "prof": 0,
        "total": 0
      },
      "nat": {
        "value": 0,
        "ability": "int",
        "bonus": 0,
        "mod": -1,
        "passive": 9,
        "prof": 0,
        "total": -1
      },
      "prc": {
        "value": 1,
        "ability": "wis",
        "bonus": 0,
        "mod": 0,
        "passive": 12,
        "prof": 2,
        "total": 2
      },
      "prf": {
        "value": 0,
        "ability": "cha",
        "bonus": 0,
        "mod": 2,
        "passive": 12,
        "prof": 0,
        "total": 2
      },
      "per": {
        "value": 0,
        "ability": "cha",
        "bonus": 0,
        "mod": 2,
        "passive": 12,
        "prof": 0,
        "total": 2
      },
      "rel": {
        "value": 0,
        "ability": "int",
        "bonus": 0,
        "mod": -1,
        "passive": 9,
        "prof": 0,
        "total": -1
      },
      "slt": {
        "value": 0,
        "ability": "dex",
        "bonus": 0,
        "mod": 2,
        "passive": 12,
        "prof": 0,
        "total": 2
      },
      "ste": {
        "value": 0,
        "ability": "dex",
        "bonus": 0,
        "mod": 2,
        "passive": 12,
        "prof": 0,
        "total": 2
      },
      "sur": {
        "value": 0,
        "ability": "wis",
        "bonus": 0,
        "mod": 0,
        "passive": 10,
        "prof": 0,
        "total": 0
      }
    },
    "spells": {
      "spell1": {
        "value": 0,
        "override": null,
        "max": 0
      },
      "spell2": {
        "value": 0,
        "override": null,
        "max": 0
      },
      "spell3": {
        "value": 0,
        "override": null,
        "max": 0
      },
      "spell4": {
        "value": 0,
        "override": null,
        "max": 0
      },
      "spell5": {
        "value": 0,
        "override": null,
        "max": 0
      },
      "spell6": {
        "value": 0,
        "override": null,
        "max": 0
      },
      "spell7": {
        "value": 0,
        "override": null,
        "max": 0
      },
      "spell8": {
        "value": 0,
        "override": null,
        "max": 0
      },
      "spell9": {
        "value": 0,
        "override": null,
        "max": 0
      },
      "pact": {
        "value": 0,
        "override": null,
        "max": 0,
        "level": 0
      },
      "spell0": {
        "_deprecated": true,
        "max": 0,
        "value": null
      }
    },
    "bonuses": {
      "mwak": {
        "attack": "",
        "damage": ""
      },
      "rwak": {
        "attack": "",
        "damage": ""
      },
      "msak": {
        "attack": "",
        "damage": ""
      },
      "rsak": {
        "attack": "",
        "damage": ""
      },
      "abilities": {
        "check": "",
        "save": "",
        "skill": ""
      },
      "spell": {
        "dc": ""
      }
    },
    "resources": {
      "primary": {
        "value": null,
        "max": null,
        "sr": false,
        "lr": false,
        "label": ""
      },
      "secondary": {
        "value": null,
        "max": null,
        "sr": false,
        "lr": false,
        "label": ""
      },
      "tertiary": {
        "value": null,
        "max": null,
        "sr": false,
        "lr": false,
        "label": ""
      }
    }
  },
  "token": {
    "flags": {},
    "name": "Merric",
    "displayName": 30,
    "img": "systems/dnd5e/tokens/heroes/BarbarianMaul.webp",
    "tint": null,
    "width": 1,
    "height": 1,
    "scale": 0.8,
    "mirrorX": false,
    "mirrorY": false,
    "lockRotation": false,
    "rotation": 0,
    "vision": true,
    "dimSight": 5,
    "brightSight": 0,
    "dimLight": 0,
    "brightLight": 0,
    "sightAngle": 0,
    "lightAngle": 0,
    "lightColor": null,
    "lightAlpha": 1,
    "lightAnimation": {
      "speed": 5,
      "intensity": 5
    },
    "actorId": "1tAXamEdCqcLQwpM",
    "actorLink": true,
    "disposition": 1,
    "displayBars": 40,
    "bar1": {
      "attribute": "attributes.hp"
    },
    "bar2": {
      "attribute": "attributes.ac.value"
    },
    "randomImg": false,
    "alpha": 1
  },
  "items": [
    {
      "_id": "U69Wo1zpr7xpWBdH",
      "name": "Background: Vigilante",
      "type": "feat",
      "data": {
        "description": {
          "value": "<ul>\n<li>Skill Proficiencies: Insight, Investigation, Perception</li>\n<li>Equipment: Explorer's Pack, 2 gp</li>\n</ul>",
          "chat": "",
          "unidentified": ""
        },
        "source": "",
        "activation": {
          "type": "",
          "cost": 0,
          "condition": ""
        },
        "duration": {
          "value": "",
          "units": ""
        },
        "target": {
          "value": "",
          "width": null,
          "units": "",
          "type": ""
        },
        "range": {
          "value": "",
          "long": null,
          "units": ""
        },
        "uses": {
          "value": 0,
          "max": 0,
          "per": null,
          "type": ""
        },
        "consume": {
          "type": "",
          "target": null,
          "amount": null
        },
        "ability": "",
        "actionType": "",
        "attackBonus": 0,
        "chatFlavor": "",
        "critical": {
          "threshold": null,
          "damage": ""
        },
        "damage": {
          "parts": [],
          "versatile": "",
          "value": ""
        },
        "formula": "",
        "save": {
          "ability": "",
          "dc": null,
          "scaling": "spell",
          "value": ""
        },
        "requirements": "",
        "recharge": {
          "value": null,
          "charged": false
        },
        "featType": {
          "value": "passive",
          "_deprecated": true,
          "type": "String",
          "label": "Feat Type"
        },
        "time": {
          "value": "",
          "_deprecated": true
        },
        "damageType": {
          "value": "",
          "_deprecated": true
        },
        "attributes": {
          "spelldc": 10
        },
        "attunement": 0
      },
      "sort": 4650000,
      "flags": {},
      "img": "icons/magic/fire/flame-burning-fist-strike.webp",
      "effects": [],
      "folder": null,
      "permission": {
        "default": 0
      }
    },
    {
      "_id": "PRWrxqFZEBsYGcMt",
      "name": "Rage",
      "type": "feat",
      "data": {
        "description": {
          "value": "<p>In battle, you fight with primal ferocity. On your turn, you can enter a rage as a bonus action. While raging, you gain the following benefits if you aren't wearing heavy armor:</p>\n<ul>\n<li>\n<p>You have advantage on Strength checks and Strength saving throws.</p>\n</li>\n<li>\n<p>When you make a melee weapon attack using Strength, you gain a bonus to the damage roll that increases as you gain levels as a barbarian, as shown in the Rage Damage column of the Barbarian table.</p>\n</li>\n<li>\n<p>You have resistance to bludgeoning, piercing, and slashing damage.</p>\n</li>\n</ul>\n<p>If you are able to cast spells, you can't cast them or concentrate on them while raging. </p><p>Your rage lasts for 1 minute. It ends early if you are knocked unconscious or if your turn ends and you haven't attacked a hostile creature since your last turn or taken damage since then. You can also end your rage on your turn as a bonus action. </p><p>Once you have raged the number of times shown for your barbarian level in the Rages column in the table below, you must finish a long rest before you can rage again.</p><p><em>**Foundry note: Note the limited uses is set to the base default of 2. Please manually adjust as required.</em></p>\n<table border=\"1\">\n<tbody>\n<tr>\n<td><strong>Barbarian Level</strong></td>\n<td><strong>Rages</strong></td>\n<td><strong>Rage Damage</strong></td>\n</tr>\n<tr>\n<td>1st</td>\n<td>2</td>\n<td>+2</td>\n</tr>\n<tr>\n<td>2nd</td>\n<td>2</td>\n<td>+2</td>\n</tr>\n<tr>\n<td>3rd</td>\n<td>3</td>\n<td>+2</td>\n</tr>\n<tr>\n<td>4th</td>\n<td>3</td>\n<td>+2</td>\n</tr>\n<tr>\n<td>5th</td>\n<td>3</td>\n<td>+2</td>\n</tr>\n<tr>\n<td>6th</td>\n<td>4</td>\n<td>+2</td>\n</tr>\n<tr>\n<td>7th</td>\n<td>4</td>\n<td>+2</td>\n</tr>\n<tr>\n<td>8th</td>\n<td>4</td>\n<td>+2</td>\n</tr>\n<tr>\n<td>9th</td>\n<td>4</td>\n<td>+3</td>\n</tr>\n<tr>\n<td>10th</td>\n<td>4</td>\n<td>+3</td>\n</tr>\n<tr>\n<td>11th</td>\n<td>4</td>\n<td>+3</td>\n</tr>\n<tr>\n<td>12th</td>\n<td>5</td>\n<td>+3</td>\n</tr>\n<tr>\n<td>13th</td>\n<td>5</td>\n<td>+3</td>\n</tr>\n<tr>\n<td>14th</td>\n<td>5</td>\n<td>+3</td>\n</tr>\n<tr>\n<td>15th</td>\n<td>5</td>\n<td>+3</td>\n</tr>\n<tr>\n<td>16th</td>\n<td>5</td>\n<td>+4</td>\n</tr>\n<tr>\n<td>17th</td>\n<td>6</td>\n<td>+4</td>\n</tr>\n<tr>\n<td>18th</td>\n<td>6</td>\n<td>+4</td>\n</tr>\n<tr>\n<td>19th</td>\n<td>6</td>\n<td>+4</td>\n</tr>\n<tr>\n<td>20th</td>\n<td>Unlimited</td>\n<td>+4</td>\n</tr>\n</tbody>\n</table>\n",
          "chat": "",
          "unidentified": ""
        },
        "source": "PHB pg. 48",
        "activation": {
          "type": "bonus",
          "cost": 1,
          "condition": ""
        },
        "duration": {
          "value": 1,
          "units": "minute"
        },
        "target": {
          "value": null,
          "width": null,
          "units": null,
          "type": "self"
        },
        "range": {
          "value": null,
          "long": null,
          "units": "self"
        },
        "uses": {
          "value": 2,
          "max": 2,
          "per": "lr",
          "type": "lr"
        },
        "consume": {
          "type": "",
          "target": null,
          "amount": null
        },
        "ability": "",
        "actionType": "",
        "attackBonus": 0,
        "chatFlavor": "",
        "critical": {
          "threshold": null,
          "damage": ""
        },
        "damage": {
          "parts": [],
          "versatile": "",
          "value": ""
        },
        "formula": "",
        "save": {
          "ability": "",
          "dc": null,
          "scaling": "spell",
          "value": ""
        },
        "requirements": "Barbarian 1",
        "recharge": {
          "value": null,
          "charged": false
        },
        "attunement": 0
      },
      "sort": 4400000,
      "flags": {},
      "img": "icons/creatures/abilities/mouth-teeth-human.webp",
      "effects": [],
      "folder": null,
      "permission": {
        "default": 0
      }
    },
    {
      "_id": "6S2Nwqwk9GQCcfmg",
      "name": "Unarmored Defense (Barbarian)",
      "type": "feat",
      "data": {
        "description": {
          "value": "<p>While you are not wearing any armor, your Armor Class equals 10 + your Dexterity modifier + your Constitution modifier. You can use a shield and still gain this benefit.</p>",
          "chat": "",
          "unidentified": ""
        },
        "source": "PHB pg. 48",
        "activation": {
          "type": "",
          "cost": 0,
          "condition": ""
        },
        "duration": {
          "value": null,
          "units": ""
        },
        "target": {
          "value": null,
          "width": null,
          "units": "",
          "type": ""
        },
        "range": {
          "value": null,
          "long": null,
          "units": ""
        },
        "uses": {
          "value": 0,
          "max": 0,
          "per": "",
          "type": ""
        },
        "consume": {
          "type": "",
          "target": null,
          "amount": null
        },
        "ability": "",
        "actionType": "",
        "attackBonus": 0,
        "chatFlavor": "",
        "critical": {
          "threshold": null,
          "damage": ""
        },
        "damage": {
          "parts": [],
          "versatile": "",
          "value": ""
        },
        "formula": "",
        "save": {
          "ability": "",
          "dc": null,
          "scaling": "spell",
          "value": ""
        },
        "requirements": "Barbarian 1",
        "recharge": {
          "value": null,
          "charged": false
        },
        "attunement": 0
      },
      "sort": 4550000,
      "flags": {},
      "img": "icons/magic/control/silhouette-hold-change-blue.webp",
      "effects": [],
      "folder": null,
      "permission": {
        "default": 0
      }
    },
    {
      "_id": "l87HKTUcZRp0PohR",
      "name": "Javelin (melee)",
      "type": "weapon",
      "data": {
        "description": {
          "value": "<p>This light and flexible spear is designed for throwing, but is versatile enough to be used in melee combat as well.</p>",
          "chat": "",
          "unidentified": ""
        },
        "source": "PHB pg. 149",
        "quantity": 1,
        "weight": 0,
        "price": 0.5,
        "attunement": 0,
        "equipped": false,
        "rarity": "Common",
        "identified": true,
        "activation": {
          "type": "action",
          "cost": 1,
          "condition": ""
        },
        "duration": {
          "value": 0,
          "units": ""
        },
        "target": {
          "value": 0,
          "width": null,
          "units": "",
          "type": ""
        },
        "range": {
          "value": 30,
          "long": 120,
          "units": "ft"
        },
        "uses": {
          "value": 0,
          "max": 0,
          "per": ""
        },
        "consume": {
          "type": "",
          "target": "",
          "amount": null
        },
        "ability": "",
        "actionType": "mwak",
        "attackBonus": 0,
        "chatFlavor": "",
        "critical": {
          "threshold": null,
          "damage": ""
        },
        "damage": {
          "parts": [
            [
              "1d6 + @mod",
              "piercing"
            ]
          ],
          "versatile": ""
        },
        "formula": "",
        "save": {
          "ability": "",
          "dc": null,
          "scaling": "spell"
        },
        "armor": {
          "value": 10
        },
        "hp": {
          "value": 0,
          "max": 0,
          "dt": null,
          "conditions": ""
        },
        "weaponType": "simpleM",
        "properties": {
          "thr": true,
          "amm": false,
          "hvy": false,
          "fin": false,
          "fir": false,
          "foc": false,
          "lgt": false,
          "rch": false,
          "rel": false,
          "ret": false,
          "spc": false,
          "two": false,
          "ver": false,
          "lod": false
        },
        "proficient": true,
        "attuned": false,
        "attributes": {
          "spelldc": 10
        }
      },
      "sort": 225000,
      "flags": {},
      "img": "icons/weapons/ammunition/arrows-bodkin-yellow-red.webp",
      "effects": [],
      "folder": null,
      "permission": {
        "default": 0
      }
    },
    {
      "_id": "bvHyCpcudXZ2bN7i",
      "name": "Javelin (thrown)",
      "type": "weapon",
      "data": {
        "description": {
          "value": "<p>This light and flexible spear is designed for throwing, but is versatile enough to be used in melee combat as well.</p>",
          "chat": "",
          "unidentified": ""
        },
        "source": "PHB pg. 149",
        "quantity": 1,
        "weight": 0,
        "price": 0.5,
        "attunement": 0,
        "equipped": false,
        "rarity": "Common",
        "identified": true,
        "activation": {
          "type": "action",
          "cost": 1,
          "condition": ""
        },
        "duration": {
          "value": 0,
          "units": ""
        },
        "target": {
          "value": 0,
          "width": null,
          "units": "",
          "type": ""
        },
        "range": {
          "value": 30,
          "long": 120,
          "units": "ft"
        },
        "uses": {
          "value": 0,
          "max": 0,
          "per": ""
        },
        "consume": {
          "type": "ammo",
          "target": "acFqo6BnGivxj5lE",
          "amount": 1
        },
        "ability": "",
        "actionType": "rwak",
        "attackBonus": 0,
        "chatFlavor": "",
        "critical": {
          "threshold": null,
          "damage": ""
        },
        "damage": {
          "parts": [
            [
              "1d6 + @mod",
              "piercing"
            ]
          ],
          "versatile": ""
        },
        "formula": "",
        "save": {
          "ability": "",
          "dc": null,
          "scaling": "spell"
        },
        "armor": {
          "value": 10
        },
        "hp": {
          "value": 0,
          "max": 0,
          "dt": null,
          "conditions": ""
        },
        "weaponType": "simpleR",
        "properties": {
          "thr": true,
          "amm": false,
          "hvy": false,
          "fin": false,
          "fir": false,
          "foc": false,
          "lgt": false,
          "rch": false,
          "rel": false,
          "ret": false,
          "spc": false,
          "two": false,
          "ver": false,
          "lod": false
        },
        "proficient": true,
        "attuned": false,
        "attributes": {
          "spelldc": 10
        }
      },
      "sort": 250000,
      "flags": {},
      "img": "icons/weapons/ammunition/arrows-bodkin-yellow-red.webp",
      "effects": [],
      "folder": null,
      "permission": {
        "default": 0
      }
    },
    {
      "_id": "acFqo6BnGivxj5lE",
      "name": "Javelin",
      "type": "consumable",
      "data": {
        "description": {
          "value": "<p>This light and flexible spear is designed for throwing, but is versatile enough to be used in melee combat as well.</p>",
          "chat": "",
          "unidentified": ""
        },
        "source": "PHB pg. 149",
        "quantity": 5,
        "weight": 2,
        "price": 0.5,
        "attunement": 0,
        "equipped": false,
        "rarity": "Common",
        "identified": true,
        "activation": {
          "type": "",
          "cost": 0,
          "condition": ""
        },
        "duration": {
          "value": null,
          "units": ""
        },
        "target": {
          "value": null,
          "width": null,
          "units": "",
          "type": ""
        },
        "range": {
          "value": null,
          "long": null,
          "units": ""
        },
        "uses": {
          "value": 0,
          "max": 0,
          "per": null,
          "autoDestroy": false
        },
        "consume": {
          "type": "",
          "target": null,
          "amount": null
        },
        "ability": null,
        "actionType": "",
        "attackBonus": 0,
        "chatFlavor": "",
        "critical": {
          "threshold": null,
          "damage": ""
        },
        "damage": {
          "parts": [],
          "versatile": ""
        },
        "formula": "",
        "save": {
          "ability": "",
          "dc": null,
          "scaling": "spell"
        },
        "consumableType": "ammo",
        "attuned": false
      },
      "sort": 100001,
      "flags": {},
      "img": "icons/weapons/ammunition/arrows-bodkin-yellow-red.webp",
      "effects": [],
      "folder": null,
      "permission": {
        "default": 0
      }
    },
    {
      "_id": "kccU0cngRTiFlfLu",
      "name": "Greataxe",
      "type": "weapon",
      "data": {
        "description": {
          "value": "<p>This enormous axe features two twin crescent blades mounted on either side of a tall spiked shaft. Designed to be wielded with two hands and cleave foes in twain.</p>",
          "chat": "",
          "unidentified": ""
        },
        "source": "PHB pg. 149",
        "quantity": 1,
        "weight": 7,
        "price": 30,
        "attunement": 0,
        "equipped": true,
        "rarity": "Common",
        "identified": true,
        "activation": {
          "type": "action",
          "cost": 1,
          "condition": ""
        },
        "duration": {
          "value": null,
          "units": ""
        },
        "target": {
          "value": null,
          "width": null,
          "units": "",
          "type": ""
        },
        "range": {
          "value": 5,
          "long": null,
          "units": "ft"
        },
        "uses": {
          "value": 0,
          "max": 0,
          "per": ""
        },
        "consume": {
          "type": "",
          "target": "",
          "amount": null
        },
        "ability": "",
        "actionType": "mwak",
        "attackBonus": 0,
        "chatFlavor": "",
        "critical": {
          "threshold": null,
          "damage": ""
        },
        "damage": {
          "parts": [
            [
              "1d12 + @mod",
              "slashing"
            ]
          ],
          "versatile": ""
        },
        "formula": "",
        "save": {
          "ability": "",
          "dc": null,
          "scaling": "spell"
        },
        "armor": {
          "value": 10
        },
        "hp": {
          "value": 0,
          "max": 0,
          "dt": null,
          "conditions": ""
        },
        "weaponType": "martialM",
        "properties": {
          "hvy": true,
          "two": true,
          "amm": false,
          "fin": false,
          "fir": false,
          "foc": false,
          "lgt": false,
          "lod": false,
          "rch": false,
          "rel": false,
          "ret": false,
          "spc": false,
          "thr": false,
          "ver": false
        },
        "proficient": true,
        "attuned": false,
        "attributes": {
          "spelldc": 10
        }
      },
      "sort": 200000,
      "flags": {},
      "img": "icons/weapons/axes/axe-double.webp",
      "effects": [],
      "folder": null,
      "permission": {
        "default": 0
      }
    },
    {
      "_id": "9hY5bOuPFqGubCEw",
      "name": "Backpack",
      "type": "backpack",
      "data": {
        "description": {
          "value": "<p>A backpack can hold one cubic foot or 30 pounds of gear. You can also strap items, such as a bedroll or a coil of rope, to the outside of a backpack.</p>",
          "chat": "",
          "unidentified": ""
        },
        "source": "PHB pg. 153",
        "quantity": 1,
        "weight": 5,
        "price": 2,
        "attunement": 0,
        "equipped": false,
        "rarity": "Common",
        "identified": true,
        "capacity": {
          "type": "weight",
          "value": 30,
          "weightless": false
        },
        "currency": {
          "cp": 0,
          "sp": 0,
          "ep": 0,
          "gp": 0,
          "pp": 0
        },
        "attuned": false,
        "damage": {
          "parts": []
        }
      },
      "sort": 100000,
      "flags": {},
      "img": "icons/containers/bags/pack-simple-leather.webp",
      "effects": [],
      "folder": null,
      "permission": {
        "default": 0
      }
    },
    {
      "_id": "86aiVMgc7XPJ1z8C",
      "name": "Bedroll",
      "type": "loot",
      "data": {
        "description": {
          "value": "<p>Roll of cloth used by traveller to sleep in.</p>",
          "chat": "",
          "unidentified": ""
        },
        "source": "PHB pg. 150",
        "quantity": 1,
        "weight": 7,
        "price": 1,
        "attunement": 0,
        "equipped": false,
        "rarity": "Common",
        "identified": true,
        "attuned": false,
        "damage": {
          "parts": []
        }
      },
      "sort": 800000,
      "flags": {},
      "img": "icons/sundries/flags/banner-worn-blue.webp",
      "effects": [],
      "folder": null,
      "permission": {
        "default": 0
      }
    },
    {
      "_id": "SHXoXJMWZywkU7aV",
      "name": "Hempen Rope (50 ft.)",
      "type": "consumable",
      "data": {
        "description": {
          "value": "<p>Rope, whether made of hemp or silk, has 2 hit points and can be burst with a DC 17 Strength check.</p>",
          "chat": "",
          "unidentified": ""
        },
        "source": "PHB pg. 153",
        "quantity": 1,
        "weight": 10,
        "price": 1,
        "attunement": 0,
        "equipped": false,
        "rarity": "Common",
        "identified": true,
        "activation": {
          "type": "action",
          "cost": 1,
          "condition": ""
        },
        "duration": {
          "value": null,
          "units": ""
        },
        "target": {
          "value": null,
          "width": null,
          "units": "",
          "type": ""
        },
        "range": {
          "value": null,
          "long": null,
          "units": ""
        },
        "uses": {
          "value": 1,
          "max": 1,
          "per": "charges",
          "autoDestroy": false,
          "autoUse": true
        },
        "consume": {
          "type": "",
          "target": null,
          "amount": null
        },
        "ability": "",
        "actionType": "abil",
        "attackBonus": 0,
        "chatFlavor": "",
        "critical": {
          "threshold": null,
          "damage": ""
        },
        "damage": {
          "parts": [],
          "versatile": ""
        },
        "formula": "",
        "save": {
          "ability": "str",
          "dc": 17,
          "scaling": "flat"
        },
        "consumableType": "trinket",
        "attuned": false
      },
      "sort": 1000000,
      "flags": {},
      "img": "icons/sundries/survival/rope-wrapped-brown.webp",
      "effects": [],
      "folder": null,
      "permission": {
        "default": 0
      }
    },
    {
      "_id": "pIYHCVrKJLq0D2Jc",
      "name": "Rations",
      "type": "consumable",
      "data": {
        "description": {
          "value": "<p>Rations consist of dry foods suitable for extended travel, including jerky, dried fruit, hardtack, and nuts.</p>",
          "chat": "",
          "unidentified": ""
        },
        "source": "PHB pg. 153",
        "quantity": 10,
        "weight": 2,
        "price": 0.5,
        "attunement": 0,
        "equipped": false,
        "rarity": "Common",
        "identified": true,
        "activation": {
          "type": "action",
          "cost": 1,
          "condition": ""
        },
        "duration": {
          "value": 0,
          "units": ""
        },
        "target": {
          "value": 1,
          "width": null,
          "units": "",
          "type": "creature"
        },
        "range": {
          "value": null,
          "long": null,
          "units": "touch"
        },
        "uses": {
          "value": 1,
          "max": 1,
          "per": "charges",
          "autoDestroy": true,
          "autoUse": true
        },
        "consume": {
          "type": "",
          "target": "",
          "amount": null
        },
        "ability": "",
        "actionType": "util",
        "attackBonus": 0,
        "chatFlavor": "",
        "critical": {
          "threshold": null,
          "damage": ""
        },
        "damage": {
          "parts": [],
          "versatile": ""
        },
        "formula": "",
        "save": {
          "ability": "",
          "dc": null,
          "scaling": "spell"
        },
        "consumableType": "food",
        "attuned": false
      },
      "sort": 1800000,
      "flags": {},
      "img": "icons/consumables/meat/hock-leg-pink-brown.webp",
      "effects": [],
      "folder": null,
      "permission": {
        "default": 0
      }
    },
    {
      "_id": "j8eiLPd8bbBYNyC1",
      "name": "Mess Kit",
      "type": "loot",
      "data": {
        "description": {
          "value": "<p>This tin box contains a cup and simple cutlery. The box clamps together, and one side can be used as a cooking pan and the other as a plate or shallow bowl.</p>",
          "chat": "",
          "unidentified": ""
        },
        "source": "PHB pg. 152",
        "quantity": 1,
        "weight": 1,
        "price": 0.2,
        "attunement": 0,
        "equipped": false,
        "rarity": "Common",
        "identified": true,
        "attuned": false,
        "damage": {
          "parts": []
        }
      },
      "sort": 900000,
      "flags": {},
      "img": "icons/tools/cooking/fork-steel-grey.webp",
      "effects": [],
      "folder": null,
      "permission": {
        "default": 0
      }
    },
    {
      "_id": "bHPIk24Cq3Z5FO86",
      "name": "Tinderbox",
      "type": "loot",
      "data": {
        "description": {
          "value": "<p>This small container holds flint, fire steel, and tinder (usually dry cloth soaked in light oil) used to kindle a fire. Using it to light a torch - or anything else with abundant, exposed fuel - takes an action. Lighting any other fire takes 1 minute.</p>",
          "chat": "",
          "unidentified": ""
        },
        "source": "PHB pg. 153",
        "quantity": 1,
        "weight": 1,
        "price": 0.5,
        "attunement": 0,
        "equipped": false,
        "rarity": "Common",
        "identified": true,
        "attuned": false,
        "damage": {
          "parts": []
        }
      },
      "sort": 1400000,
      "flags": {},
      "img": "icons/sundries/lights/torch-black.webp",
      "effects": [],
      "folder": null,
      "permission": {
        "default": 0
      }
    },
    {
      "_id": "YyXrE0aRDWy4AtwB",
      "name": "Torch",
      "type": "consumable",
      "data": {
        "description": {
          "value": "<p>A torch burns for 1 hour, providing bright light in a 20-foot radius and dim light for an additional 20 feet. If you make a melee attack with a burning torch and hit, it deals 1 fire damage.</p>",
          "chat": "",
          "unidentified": ""
        },
        "source": "PHB pg. 153",
        "quantity": 10,
        "weight": 1,
        "price": 0.01,
        "attunement": 0,
        "equipped": false,
        "rarity": "Common",
        "identified": true,
        "activation": {
          "type": "action",
          "cost": 1,
          "condition": ""
        },
        "duration": {
          "value": 1,
          "units": "hour"
        },
        "target": {
          "value": 40,
          "width": null,
          "units": "ft",
          "type": "radius"
        },
        "range": {
          "value": null,
          "long": null,
          "units": ""
        },
        "uses": {
          "value": 1,
          "max": 1,
          "per": "charges",
          "autoDestroy": true,
          "autoUse": true
        },
        "consume": {
          "type": "",
          "target": "",
          "amount": null
        },
        "ability": "str",
        "actionType": "mwak",
        "attackBonus": 0,
        "chatFlavor": "",
        "critical": {
          "threshold": null,
          "damage": ""
        },
        "damage": {
          "parts": [
            [
              "1",
              "fire"
            ]
          ],
          "versatile": ""
        },
        "formula": "",
        "save": {
          "ability": "",
          "dc": null,
          "scaling": "spell"
        },
        "consumableType": "trinket",
        "attuned": false
      },
      "sort": 4700000,
      "flags": {},
      "img": "icons/sundries/lights/torch-black.webp",
      "effects": [],
      "folder": null,
      "permission": {
        "default": 0
      }
    },
    {
      "_id": "YvaZVAmilJd26Bfq",
      "name": "Waterskin",
      "type": "consumable",
      "data": {
        "description": {
          "value": "<p>A leather hide sewn into an enclosed skin which can contain up to 4 pints of liquid. It weighs 5 pounds when full; a pint of water is approximately 1 pound.</p>",
          "chat": "",
          "unidentified": ""
        },
        "source": "PHB pg. 153",
        "quantity": 1,
        "weight": 5,
        "price": 0.2,
        "attunement": 0,
        "equipped": false,
        "rarity": "Common",
        "identified": true,
        "activation": {
          "type": "action",
          "cost": 1,
          "condition": ""
        },
        "duration": {
          "value": 0,
          "units": ""
        },
        "target": {
          "value": 0,
          "width": null,
          "units": "",
          "type": ""
        },
        "range": {
          "value": null,
          "long": null,
          "units": "touch"
        },
        "uses": {
          "value": 4,
          "max": 4,
          "per": "charges",
          "autoDestroy": false,
          "autoUse": true
        },
        "consume": {
          "type": "",
          "target": null,
          "amount": null
        },
        "ability": "",
        "actionType": "util",
        "attackBonus": 0,
        "chatFlavor": "",
        "critical": {
          "threshold": null,
          "damage": ""
        },
        "damage": {
          "parts": [],
          "versatile": ""
        },
        "formula": "",
        "save": {
          "ability": "",
          "dc": null,
          "scaling": "spell"
        },
        "consumableType": "food",
        "attuned": false
      },
      "sort": 500000,
      "flags": {},
      "img": "icons/sundries/survival/wetskin-leather-purple.webp",
      "effects": [],
      "folder": null,
      "permission": {
        "default": 0
      }
    },
    {
      "_id": "3hJ5vLP7E424pEo4",
      "name": "Handaxe",
      "type": "weapon",
      "data": {
        "description": {
          "value": "<p>This one-handed axe is light and balanced for throwing while remaining useful in hand combat.</p>",
          "chat": "",
          "unidentified": ""
        },
        "source": "PHB pg. 149",
        "quantity": 1,
        "weight": 2,
        "price": 5,
        "attunement": 0,
        "equipped": false,
        "rarity": "Common",
        "identified": true,
        "activation": {
          "type": "action",
          "cost": 1,
          "condition": ""
        },
        "duration": {
          "value": null,
          "units": ""
        },
        "target": {
          "value": null,
          "width": null,
          "units": "",
          "type": ""
        },
        "range": {
          "value": 20,
          "long": 60,
          "units": "ft"
        },
        "uses": {
          "value": 0,
          "max": 0,
          "per": ""
        },
        "consume": {
          "type": "",
          "target": "",
          "amount": null
        },
        "ability": "",
        "actionType": "mwak",
        "attackBonus": 0,
        "chatFlavor": "",
        "critical": {
          "threshold": null,
          "damage": ""
        },
        "damage": {
          "parts": [
            [
              "1d6 + @mod",
              "slashing"
            ]
          ],
          "versatile": ""
        },
        "formula": "",
        "save": {
          "ability": "",
          "dc": null,
          "scaling": "spell"
        },
        "armor": {
          "value": 10
        },
        "hp": {
          "value": 0,
          "max": 0,
          "dt": null,
          "conditions": ""
        },
        "weaponType": "simpleM",
        "properties": {
          "lgt": true,
          "thr": true,
          "amm": false,
          "hvy": false,
          "fin": false,
          "fir": false,
          "foc": false,
          "lod": false,
          "rch": false,
          "rel": false,
          "ret": false,
          "spc": false,
          "two": false,
          "ver": false
        },
        "proficient": true,
        "attuned": false,
        "attributes": {
          "spelldc": 10
        }
      },
      "sort": 287500,
      "flags": {},
      "img": "icons/weapons/axes/axe-broad-black.webp",
      "effects": [],
      "folder": null,
      "permission": {
        "default": 0
      }
    },
    {
      "_id": "uWLF3Gr976X8vd7n",
      "name": "Handaxe (offhand)",
      "type": "weapon",
      "data": {
        "description": {
          "value": "<p>This one-handed axe is light and balanced for throwing while remaining useful in hand combat.</p>",
          "chat": "",
          "unidentified": ""
        },
        "source": "PHB pg. 149",
        "quantity": 1,
        "weight": 2,
        "price": 5,
        "attunement": 0,
        "equipped": false,
        "rarity": "Common",
        "identified": true,
        "activation": {
          "type": "action",
          "cost": 1,
          "condition": ""
        },
        "duration": {
          "value": null,
          "units": ""
        },
        "target": {
          "value": null,
          "width": null,
          "units": "",
          "type": ""
        },
        "range": {
          "value": 20,
          "long": 60,
          "units": "ft"
        },
        "uses": {
          "value": 0,
          "max": 0,
          "per": ""
        },
        "consume": {
          "type": "",
          "target": "",
          "amount": null
        },
        "ability": "",
        "actionType": "mwak",
        "attackBonus": 0,
        "chatFlavor": "",
        "critical": {
          "threshold": null,
          "damage": ""
        },
        "damage": {
          "parts": [
            [
              "1d6",
              "slashing"
            ]
          ],
          "versatile": ""
        },
        "formula": "",
        "save": {
          "ability": "",
          "dc": null,
          "scaling": "spell"
        },
        "armor": {
          "value": 10
        },
        "hp": {
          "value": 0,
          "max": 0,
          "dt": null,
          "conditions": ""
        },
        "weaponType": "simpleM",
        "properties": {
          "lgt": true,
          "thr": true,
          "amm": false,
          "hvy": false,
          "fin": false,
          "fir": false,
          "foc": false,
          "lod": false,
          "rch": false,
          "rel": false,
          "ret": false,
          "spc": false,
          "two": false,
          "ver": false
        },
        "proficient": true,
        "attuned": false,
        "attributes": {
          "spelldc": 10
        }
      },
      "sort": 325000,
      "flags": {},
      "img": "icons/weapons/axes/axe-broad-black.webp",
      "effects": [],
      "folder": null,
      "permission": {
        "default": 0
      }
    },
    {
      "_id": "CgqeiBQNhmG1B1MW",
      "name": "Barbarian",
      "type": "class",
      "data": {
        "description": {
          "value": "<p>As a barbarian, you gain the following class features.</p>\n<h3>Hit Points</h3>\n<p><strong>Hit Dice:</strong> 1d12 per barbarian level<br /><strong>Hit Points at 1st Level:</strong> 12 + your Constitution modifier<br /><strong>Hit Points at Higher Levels:</strong> 1d12 (or 7) + your Constitution modifier per barbarian level after 1st</p>\n<h3>Proficiencies</h3>\n<p><strong>Armor:</strong> Light armor, medium armor, shields<br /><strong>Weapons:</strong> Simple weapons, martial weapons<br /><strong>Tools:</strong> None<br /><strong>Saving Throws:</strong> Strength, Constitution<br /><strong>Skills:</strong> Choose two from Animal Handling, Athletics, Intimidation, Nature, Perception, and Survival</p>\n<h3>Equipment</h3>\n<p>You start with the following equipment, in addition to the equipment granted by your background:</p>\n<ul>\n<li>(a) a greataxe or (b) any martial melee weapon</li>\n<li>(a) two handaxes or (b) any simple weapon</li>\n<li>An explorer's pack and four javelins</li>\n</ul>\n<h1>Barbarian Advancement</h1>\n<table>\n<thead>\n<tr>\n<td>Level</td>\n<td>Proficiency Bonus</td>\n<td>Features</td>\n<td>Rages</td>\n<td>Rage Damage</td>\n</tr>\n</thead>\n<tbody>\n<tr>\n<td>1st</td>\n<td>+2</td>\n<td>@Compendium[dnd5e.classfeatures.VoR0SUrNX5EJVPIO]{Rage}, @Compendium[dnd5e.classfeatures.SZbsNbaxFFGwBpNK]{Unarmored Defense}</td>\n<td>2</td>\n<td>+2</td>\n</tr>\n<tr>\n<td>2nd</td>\n<td>+2</td>\n<td>@Compendium[dnd5e.classfeatures.SCVjqRdlZ9cvHVSR]{Reckless Attack}, @Compendium[dnd5e.classfeatures.vt31lWAULygEl7yk]{Danger Sense}</td>\n<td>2</td>\n<td>+2</td>\n</tr>\n<tr>\n<td>3rd</td>\n<td>+2</td>\n<td>@Compendium[dnd5e.classfeatures.TH1QAf6YNGSeBVjT]{Primal Path}</td>\n<td>3</td>\n<td>+2</td>\n</tr>\n<tr>\n<td>4th</td>\n<td>+2</td>\n<td>@Compendium[dnd5e.classfeatures.s0Cc2zcX0JzIgam5]{Ability Score Improvement}</td>\n<td>3</td>\n<td>+2</td>\n</tr>\n<tr>\n<td>5th</td>\n<td>+3</td>\n<td>@Compendium[dnd5e.classfeatures.XogoBnFWmCAHXppo]{Extra Attack}, @Compendium[dnd5e.classfeatures.Kl6zifJ5OmdHlOi2]{Fast Movement}</td>\n<td>3</td>\n<td>+2</td>\n</tr>\n<tr>\n<td>6th</td>\n<td>+3</td>\n<td>Path feature</td>\n<td>4</td>\n<td>+2</td>\n</tr>\n<tr>\n<td>7th</td>\n<td>+3</td>\n<td>@Compendium[dnd5e.classfeatures.NlXslw4yAqmKZWtN]{Feral Instinct}</td>\n<td>4</td>\n<td>+2</td>\n</tr>\n<tr>\n<td>8th</td>\n<td>+3</td>\n<td>@Compendium[dnd5e.classfeatures.s0Cc2zcX0JzIgam5]{Ability Score Improvement}</td>\n<td>4</td>\n<td>+2</td>\n</tr>\n<tr>\n<td>9th</td>\n<td>+4</td>\n<td>@Compendium[dnd5e.classfeatures.L94gyvNpUhUe0rwh]{Brutal Critical (1 die)}</td>\n<td>4</td>\n<td>+3</td>\n</tr>\n<tr>\n<td>10th</td>\n<td>+4</td>\n<td>Path feature</td>\n<td>4</td>\n<td>+3</td>\n</tr>\n<tr>\n<td>11th</td>\n<td>+4</td>\n<td>@Compendium[dnd5e.classfeatures.FqfmbPgxiyrWzhYk]{Relentless Rage}</td>\n<td>4</td>\n<td>+3</td>\n</tr>\n<tr>\n<td>12th</td>\n<td>+4</td>\n<td>@Compendium[dnd5e.classfeatures.s0Cc2zcX0JzIgam5]{Ability Score Improvement}</td>\n<td>5</td>\n<td>+3</td>\n</tr>\n<tr>\n<td>13th</td>\n<td>+5</td>\n<td>@Compendium[dnd5e.classfeatures.L94gyvNpUhUe0rwh]{Brutal Critical (2 dice)}</td>\n<td>5</td>\n<td>+3</td>\n</tr>\n<tr>\n<td>14th</td>\n<td>+5</td>\n<td>Path feature</td>\n<td>5</td>\n<td>+3</td>\n</tr>\n<tr>\n<td>15th</td>\n<td>+5</td>\n<td>@Compendium[dnd5e.classfeatures.l8tUhZ5Pecm9wz7I]{Persistent Rage}</td>\n<td>5</td>\n<td>+3</td>\n</tr>\n<tr>\n<td>16th</td>\n<td>+5</td>\n<td>@Compendium[dnd5e.classfeatures.s0Cc2zcX0JzIgam5]{Ability Score Improvement}</td>\n<td>5</td>\n<td>+4</td>\n</tr>\n<tr>\n<td>17th</td>\n<td>+6</td>\n<td>@Compendium[dnd5e.classfeatures.L94gyvNpUhUe0rwh]{Brutal Critical (3 dice)}</td>\n<td>6</td>\n<td>+4</td>\n</tr>\n<tr>\n<td>18th</td>\n<td>+6</td>\n<td>@Compendium[dnd5e.classfeatures.Q1exex5ALteprrPo]{Indomitable Might}</td>\n<td>6</td>\n<td>+4</td>\n</tr>\n<tr>\n<td>19th</td>\n<td>+6</td>\n<td>@Compendium[dnd5e.classfeatures.s0Cc2zcX0JzIgam5]{Ability Score Improvement}</td>\n<td>6</td>\n<td>+4</td>\n</tr>\n<tr>\n<td>20th</td>\n<td>+6</td>\n<td>@Compendium[dnd5e.classfeatures.jVU4AgqfrFaqgXns]{Primal Champion}</td>\n<td>Unlimited</td>\n<td>+4</td>\n</tr>\n</tbody>\n</table>\n<h1>Primal Paths</h1>\n<h2>Path of the Berserker</h2>\n<p>For some barbarians, rage is a means to an end— that end being violence. The Path of the Berserker is a path of untrammeled fury, slick with blood. As you enter the berserker's rage, you thrill in the chaos of battle, heedless of your own health or well-being.</p>\n<h3>Path of the Berserker Features</h3>\n<p>3rd Level: @Compendium[dnd5e.classfeatures.CkbbAckeCtyHXEnL]{Frenzy}</p>\n<p>6th Level: @Compendium[dnd5e.classfeatures.0Jgf8fYY2ExwgQpN]{Mindless Rage}</p>\n<p>10th Level: @Compendium[dnd5e.classfeatures.M6VSMzVtKPhh8B0i]{Intimidating Presence}</p>\n<p>14th Level: @Compendium[dnd5e.classfeatures.xzD9zlRP6dUxCtCl]{Retaliation}</p>",
          "chat": "",
          "unidentified": ""
        },
        "source": "",
        "levels": 1,
        "subclass": "",
        "hitDice": "d12",
        "hitDiceUsed": 0,
        "saves": [
          "str",
          "con"
        ],
        "skills": {
          "number": 2,
          "choices": [
            "ani",
            "ath",
            "itm",
            "nat",
            "prc",
            "sur"
          ],
          "value": []
        },
        "spellcasting": {
          "progression": "none",
          "ability": ""
        },
        "damage": {
          "parts": []
        },
        "attunement": 0
      },
      "sort": 0,
      "flags": {
        "core": {
          "sourceId": "Compendium.dnd5e.classes.pvEzGSv71zBhaolc"
        }
      },
      "img": "icons/skills/melee/hand-grip-sword-orange.webp",
      "effects": [],
      "folder": null,
      "permission": {
        "default": 0
      }
    },
    {
      "_id": "vb4ylO4gijpYubVK",
      "name": "Brave",
      "type": "feat",
      "data": {
        "description": {
          "value": "<p>You have advantage on saving throws against being frightened.</p>",
          "chat": "",
          "unidentified": ""
        },
        "source": "PHB pg. 28",
        "activation": {
          "type": "",
          "cost": 0,
          "condition": ""
        },
        "duration": {
          "value": null,
          "units": ""
        },
        "target": {
          "value": null,
          "width": null,
          "units": "",
          "type": ""
        },
        "range": {
          "value": null,
          "long": null,
          "units": ""
        },
        "uses": {
          "value": null,
          "max": null,
          "per": "",
          "type": "lr"
        },
        "consume": {
          "type": "",
          "target": null,
          "amount": null
        },
        "ability": "",
        "actionType": "",
        "attackBonus": 0,
        "chatFlavor": "You have advantage on saving throws against being frightened.",
        "critical": {
          "threshold": null,
          "damage": ""
        },
        "damage": {
          "parts": [],
          "versatile": "",
          "value": ""
        },
        "formula": "",
        "save": {
          "ability": "",
          "dc": null,
          "scaling": "spell",
          "value": ""
        },
        "requirements": "Halfling",
        "recharge": {
          "value": null,
          "charged": false
        },
        "featType": {
          "value": "ability",
          "_deprecated": true,
          "type": "String",
          "label": "Feat Type"
        },
        "time": {
          "value": "",
          "_deprecated": true
        },
        "damageType": {
          "value": "",
          "_deprecated": true
        },
        "attributes": {
          "spelldc": 10
        },
        "attunement": 0
      },
      "sort": 5100000,
      "flags": {},
      "img": "icons/skills/melee/unarmed-punch-fist.webp",
      "effects": [],
      "folder": null,
      "permission": {
        "default": 0
      }
    },
    {
      "_id": "EEbqVNmOskEeXbAn",
      "name": "Lucky",
      "type": "feat",
      "data": {
        "description": {
          "value": "<p>When you roll a 1 on the d20 for an attack roll, ability check, or saving throw, you can reroll the die and must use the new roll.</p><p><em><strong>Foundry Note:</strong> Enable this feature in the Special Traits section of the character sheet.</em></p>",
          "chat": "",
          "unidentified": ""
        },
        "source": "PHB pg. 28",
        "activation": {
          "type": "",
          "cost": 0,
          "condition": ""
        },
        "duration": {
          "value": null,
          "units": ""
        },
        "target": {
          "value": null,
          "width": null,
          "units": "",
          "type": ""
        },
        "range": {
          "value": null,
          "long": null,
          "units": ""
        },
        "uses": {
          "value": 0,
          "max": 0,
          "per": null
        },
        "consume": {
          "type": "",
          "target": null,
          "amount": null
        },
        "ability": null,
        "actionType": "",
        "attackBonus": 0,
        "chatFlavor": "",
        "critical": {
          "threshold": null,
          "damage": ""
        },
        "damage": {
          "parts": [],
          "versatile": ""
        },
        "formula": "",
        "save": {
          "ability": "",
          "dc": null,
          "scaling": "spell"
        },
        "requirements": "Halfling",
        "recharge": {
          "value": null,
          "charged": false
        },
        "attunement": 0
      },
      "sort": 5200000,
      "flags": {},
      "img": "icons/sundries/gaming/dice-runed-brown.webp",
      "effects": [],
      "folder": null,
      "permission": {
        "default": 0
      }
    },
    {
      "_id": "mdahmK0Ttr26qhV7",
      "name": "Naturally Stealthy",
      "type": "feat",
      "data": {
        "description": {
          "value": "<p>You can attempt to hide even when you are obscured only by a creature that is at least one size larger than you.</p>",
          "chat": "",
          "unidentified": ""
        },
        "source": "PHB pg. 28",
        "activation": {
          "type": "",
          "cost": 0,
          "condition": ""
        },
        "duration": {
          "value": "",
          "units": ""
        },
        "target": {
          "value": "",
          "width": null,
          "units": "",
          "type": ""
        },
        "range": {
          "value": "",
          "long": null,
          "units": ""
        },
        "uses": {
          "value": 0,
          "max": 0,
          "per": null
        },
        "consume": {
          "type": "",
          "target": null,
          "amount": null
        },
        "ability": "",
        "actionType": "",
        "attackBonus": 0,
        "chatFlavor": "",
        "critical": {
          "threshold": null,
          "damage": ""
        },
        "damage": {
          "parts": [],
          "versatile": "",
          "value": ""
        },
        "formula": "",
        "save": {
          "ability": "",
          "dc": null,
          "scaling": "spell",
          "value": ""
        },
        "requirements": "Lightfoot",
        "recharge": {
          "value": null,
          "charged": false
        },
        "featType": {
          "value": "ability",
          "_deprecated": true,
          "type": "String",
          "label": "Feat Type"
        },
        "time": {
          "value": "",
          "_deprecated": true
        },
        "damageType": {
          "value": "",
          "_deprecated": true
        },
        "attributes": {
          "spelldc": 10
        },
        "attunement": 0
      },
      "sort": 5300000,
      "flags": {},
      "img": "icons/magic/perception/silhouette-stealth-shadow.webp",
      "effects": [],
      "folder": null,
      "permission": {
        "default": 0
      }
    },
    {
      "_id": "XUuKHz75EISEhNjB",
      "name": "Halfling Nimbleness",
      "type": "feat",
      "data": {
        "description": {
          "value": "<p>You can move through the space of any creature that is of a size larger than yours.</p>",
          "chat": "",
          "unidentified": ""
        },
        "source": "PHB pg. 28",
        "activation": {
          "type": "",
          "cost": 0,
          "condition": ""
        },
        "duration": {
          "value": "",
          "units": ""
        },
        "target": {
          "value": "",
          "width": null,
          "units": "",
          "type": ""
        },
        "range": {
          "value": "",
          "long": null,
          "units": ""
        },
        "uses": {
          "value": 0,
          "max": 0,
          "per": null,
          "type": ""
        },
        "consume": {
          "type": "",
          "target": null,
          "amount": null
        },
        "ability": "",
        "actionType": "",
        "attackBonus": 0,
        "chatFlavor": "",
        "critical": {
          "threshold": null,
          "damage": ""
        },
        "damage": {
          "parts": [],
          "versatile": "",
          "value": ""
        },
        "formula": "",
        "save": {
          "ability": "",
          "dc": null,
          "scaling": "spell",
          "value": ""
        },
        "requirements": "Halfling",
        "recharge": {
          "value": null,
          "charged": false
        },
        "featType": {
          "value": "passive",
          "_deprecated": true,
          "type": "String",
          "label": "Feat Type"
        },
        "time": {
          "value": "",
          "_deprecated": true
        },
        "damageType": {
          "value": "",
          "_deprecated": true
        },
        "attributes": {
          "spelldc": 10
        },
        "attunement": 0
      },
      "sort": 5400000,
      "flags": {},
      "img": "icons/skills/movement/feet-winged-boots-brown.webp",
      "effects": [],
      "folder": null,
      "permission": {
        "default": 0
      }
    },
    {
      "_id": "DPsowmMZwV6S2dpt",
      "name": "Halfling",
      "type": "feat",
      "data": {
        "description": {
          "value": "<div title=\"Page 4\">\n<div>\n<div>\n<p><em>Your halfling character has a number of traits in common with all other halflings. </em></p><p><em><strong>Ability Score Increase.</strong></em> Your Dexterity score increases by 2.</p><p><em><strong>Age.</strong></em> A halfling reaches adulthood at the age of 20 and generally lives into the middle of his or her second century.</p><p><em><strong>Alignment.</strong></em> Most halflings are lawful good. As a rule, they are good-­hearted and kind, hate to see others in pain, and have no tolerance for oppression. They are also very orderly and traditional, leaning heavily on the support of their community and the comfort of their old ways.</p><p><em><strong>Size.</strong></em> Halflings average about 3 feet tall and weigh about 40 pounds. Your size is Small.</p><p><em><strong>Speed. </strong></em>Your base walking speed is 25 feet.</p><p><em><strong>Lucky.</strong></em> @Compendium[dnd5e.races.LOMdcNAGWh5xpfm4]{Lucky} When you roll a 1 on the d20 for an attack roll, ability check, or saving throw, you can reroll the die and must use the new roll.</p><p><em><strong>Brave.</strong></em> @Compendium[dnd5e.races.7Yoo9hG0hfPSmBoC]{Brave} You have advantage on saving throws against being frightened.</p>\n</div>\n</div>\n</div>\n<div title=\"Page 5\">\n<div>\n<div>\n<p><em><strong>Halfling Nimbleness.</strong></em> @Compendium[dnd5e.races.PqxZgcJzp1VVgP8t]{Halfling Nimbleness} You can move through the space of any creature that is of a size larger than yours.</p><p><em><strong>Languages.</strong></em> You can speak, read, and write Common and Halfling. The Halfling language isn't secret, but halflings are loath to share it with others. They write very little, so they don't have a rich body of literature. Their oral tradition, however, is very strong. Almost all halflings speak Common to converse with the people in whose lands they dwell or through which they are traveling.</p>\n</div>\n</div>\n</div>",
          "chat": "",
          "unidentified": ""
        },
        "source": "PHB pg. 28",
        "activation": {
          "type": "",
          "cost": 0,
          "condition": ""
        },
        "duration": {
          "value": null,
          "units": ""
        },
        "target": {
          "value": null,
          "width": null,
          "units": "",
          "type": ""
        },
        "range": {
          "value": null,
          "long": null,
          "units": ""
        },
        "uses": {
          "value": 0,
          "max": 0,
          "per": null
        },
        "consume": {
          "type": "",
          "target": null,
          "amount": null
        },
        "ability": null,
        "actionType": "",
        "attackBonus": 0,
        "chatFlavor": "",
        "critical": {
          "threshold": null,
          "damage": ""
        },
        "damage": {
          "parts": [],
          "versatile": ""
        },
        "formula": "",
        "save": {
          "ability": "",
          "dc": null,
          "scaling": "spell"
        },
        "requirements": "",
        "recharge": {
          "value": null,
          "charged": false
        },
        "attunement": 0
      },
      "sort": 4875000,
      "flags": {},
      "img": "systems/dnd5e/icons/spells/lightning-jade-2.jpg",
      "effects": [],
      "folder": null,
      "permission": {
        "default": 0
      }
    },
    {
      "_id": "1Vk6iVodEGrj12vH",
      "name": "Lightfoot",
      "type": "feat",
      "data": {
        "description": {
          "value": "<div title=\"Page 5\">\n<div>\n<div>\n<p><em>As a lightfoot halfling, you can easily hide from notice, even using other people as cover. You're inclined to be affable and get along well with others. </em></p>\n<em> </em>\n<p><em>Lightfoots are more prone to wanderlust than other halflings, and often dwell alongside other races or take up a nomadic life. </em></p><p><em><strong>Ability Score Increase.</strong></em> Your Charisma score increases by 1.</p><p><strong><em>Naturally Stealthy.</em></strong> @Compendium[dnd5e.races.GWPjKFeIthBBeCFJ]{Naturally Stealthy} You can attempt to hide even when you are obscured only by a creature that is at least one size larger than you.</p>\n</div>\n</div>\n</div>",
          "chat": "",
          "unidentified": ""
        },
        "source": "PHB pg. 28",
        "activation": {
          "type": "",
          "cost": 0,
          "condition": ""
        },
        "duration": {
          "value": null,
          "units": ""
        },
        "target": {
          "value": null,
          "width": null,
          "units": "",
          "type": ""
        },
        "range": {
          "value": null,
          "long": null,
          "units": ""
        },
        "uses": {
          "value": 0,
          "max": 0,
          "per": null
        },
        "consume": {
          "type": "",
          "target": null,
          "amount": null
        },
        "ability": null,
        "actionType": "",
        "attackBonus": 0,
        "chatFlavor": "",
        "critical": {
          "threshold": null,
          "damage": ""
        },
        "damage": {
          "parts": [],
          "versatile": ""
        },
        "formula": "",
        "save": {
          "ability": "",
          "dc": null,
          "scaling": "spell"
        },
        "requirements": "Halfling",
        "recharge": {
          "value": null,
          "charged": false
        },
        "attunement": 0
      },
      "sort": 4987500,
      "flags": {},
      "img": "systems/dnd5e/icons/spells/lightning-jade-1.jpg",
      "effects": [],
      "folder": null,
      "permission": {
        "default": 0
      }
    }
  ],
  "effects": [],
  "folder": "pK61u9wafV1nLfmS",
  "sort": 193750,
  "permission": {
    "default": 0
  },
  "flags": {
    "dnd5e-gh": {
      "halflingLucky": true
    }
  }
}
